"1"	"2"	"15"	"1"	""	""	"7/6/2017 03:29:29"	"7/6/2017 03:29:29"	""
"2"	"2"	"14"	"1"	""	""	"7/6/2017 03:29:40"	"7/6/2017 04:10:22"	"7/6/2017 04:10:22"
"3"	"2"	"15"	"1"	""	""	"7/6/2017 04:13:18"	"7/6/2017 04:13:31"	"7/6/2017 04:13:31"
"4"	"2"	"12"	"1"	""	""	"7/6/2017 04:13:26"	"7/6/2017 04:13:26"	""
"5"	"1"	"15"	"1"	""	""	"7/6/2017 04:14:04"	"7/6/2017 04:14:04"	""
"6"	"1"	"15"	"1"	""	""	"7/6/2017 04:14:08"	"7/6/2017 04:14:08"	""
